OptionValue "m8f_ts_y_values"
{
  0.02, "Top"
  0.10, "Below top"
  0.35, "Above crosshair"
  0.60, "Below crosshair"
  0.90, "Bottom"
}

OptionString "m8f_ts_font_values"
{
  "SMALLFONT"       , "Small font"
  "BIGFONT"         , "Big font"
  "ConsoleFont"     , "Console font"
  "MM2SFNTO"        , "Mementwo"
  "ESFONT"          , "Enlightening"
  "CYBERFNT"        , "Cyberfonter"
  "JenocideFontRed" , "Jenocide"
  "SMSKFONT"        , "Solid Snake"
  "GARGSMAL"        , "Gargoyle Wing"
}

OptionString "m8f_ts_crosshair_font_values"
{
  "SMALLFONT"       , "Small font"
  "BIGFONT"         , "Big font"
  "ConsoleFont"     , "Console font"
  "MM2SFNTO"        , "Mementwo"
  "ESFONT"          , "Enlightening"
  "CYBERFNT"        , "Cyberfonter"
  "JenocideFontRed" , "Jenocide"
  "SMSKFONT"        , "Solid Snake"
  "GARGSMAL"        , "Gargoyle Wing"
  "XHAIRPCS"        , "Crosshair Pieces"
  "XHAIRPCSNB"      , "Crosshair Pieces (No Border)"
}

OptionValue "m8f_ts_health_numbers_values"
{
  0, "Off"
  1, "On: current/max"
  2, "On: current"
  3, "On: 100%"
  4, "On: 100.00%"
}

OptionValue "m8f_ts_show_objects_values"
{
  0, "Off"
  1, "Shootable only"
  2, "Except decorations"
  3, "Everything"
}

OptionValue "m8f_ts_update_period_values"
{
  -1, "Never"
   0, "Immediately"
  35, "Every second"
 105, "Every three seconds"
}

OptionValue "m8f_ts_class_as_tag_values"
{
  0, "Tags"
  1, "Class Names"
  2, "Beautified Class Names"
}

OptionValue "m8f_ts_frame_style_values"
{
  0, "Disabled"
  1, "//"
  2, "::"
  3, "< >"
  4, "> <"
  5, "II"
  6, "Graphics"
}

OptionValue "m8f_ts_on_target_values"
{
  0, "Disabled"
  1, "Above"
  2, "Below"
}

OptionMenu   "m8f_ts_VisualOptions"
{
  Title      "Target Spy Visual Options"

  StaticText ""
  Option     "Font"               , "m8f_ts_font"         , "m8f_ts_font_values"
  Slider     "Newline step"       , "m8f_ts_step_mult"    , 0.1, 10.0, 0.1, 1
  Slider     "Scale"              , "m8f_ts_text_scale"   , 0.5, 3.0, 0.05, 2
  Option     "Names:"             , "m8f_class_as_tag"    , "m8f_ts_class_as_tag_values"

  StaticText ""
  StaticText "Show:"               , 1
  Option "Health bar"              , "m8f_ts_show_bar"     , "OnOff"
  Option "Health numbers"          , "m8f_ts_show_numbers" , "m8f_ts_health_numbers_values"
  Option "Name"                    , "m8f_ts_show_name"    , "OnOff"
  Option "Kill Confirmation"       , "m8f_ts_show_confirm" , "OnOff"
  Option "Additional info"         , "m8f_ts_show_info"    , "OnOff"
  StaticText "Includes: Friendly, Invulnerable, Boss."     , "Black"

  StaticText ""
  StaticText "Health bar"          , 1
  TextField "Filled bar symbol"    , "m8f_ts_pip"
  TextField "Empty bar symbol"     , "m8f_ts_empty_pip"
  Option "Health bar log scale"    , "m8f_ts_bar_log_scale" , "OnOff"
  Option "Vertical position"       , "m8f_ts_y"             , "m8f_ts_y_values"
  Slider "Offset"                  , "m8f_ts_y_offset"      , -0.2, 0.2, 0.0025, 4
  Slider "Opacity"                 , "m8f_ts_opacity"       , 0.0, 1.0, 0.05, 2
  Slider "Length Multiplier"       , "m8f_ts_length_mult"   , 0.5, 10.0, 0.1
  Option "Position on target"      , "m8f_ts_on_target"     , "m8f_ts_on_target_values"

  StaticText ""
  StaticText "Target Frame", 1
  Option     "Style" , "m8f_ts_frame_style" , "m8f_ts_frame_style_values"
  Slider     "Scale" , "m8f_ts_frame_scale" , 0.5, 3.0, 0.05, 2

  StaticText ""
}

OptionMenu   "m8f_ts_Filters"
{
  Title "Target Filters"

  StaticText ""
  Option "Stealth/shadow monsters" , "m8f_ts_show_hidden"  , "OnOff"
  Option "Friendly targets"        , "m8f_ts_show_friends" , "OnOff"
  Option "Objects"                 , "m8f_ts_show_objects" , "m8f_ts_show_objects_values"
  Option "Corpses"                 , "m8f_ts_show_corpses" , "OnOff"
  Option "Idle targets"            , "m8f_ts_show_idle"    , "OnOff"
  StaticText "Recommended: OFF if the game contains mimics.", "Black"

  StaticText ""
  Option "Hide targets in darkness", "m8f_ts_hide_in_dark" , "OnOff"
  Slider "Minimal light level"     , "m8f_ts_light_level"  , 0, 250, 10, 0
  StaticText "Targets are hidden if the light level is less than this.", "Black"

  StaticText ""
}

OptionMenu   "m8f_ts_BehaviorOptions"
{
  Title      "Target Spy Behavior Options"

  StaticText ""
  TextField  "Minimal health"                   , "m8f_ts_min_health"
  StaticText "Target spy will hide for targets" , "Black"
  StaticText "with max health less than this."  , "Black"

  StaticText ""
}

OptionMenu   "m8f_ts_CrossOptions"
{
  Title      "Target Spy Cross-mod Options"

  StaticText ""
  Option     "Special names for Champions" , "m8f_ts_show_champion", "OnOff"
  StaticText "Champions is a monster mod by Mikk-.", "Black"

  StaticText ""
}

OptionMenu   "m8f_ts_Controls"
{
  Title      "Target Spy Controls"
  StaticTextSwitchable "$CNTRLMNU_SWITCHTEXT1", "$CNTRLMNU_SWITCHTEXT2", "ControlMessage"

  StaticText ""
  Control    "Toggle"       , "m8f_ts_toggle"
  Control    "Hold to show" , "+m8f_ts_hold"

  StaticText ""
}

OptionMenu   "m8f_ts_Options"
{
  Title      "Target Spy Options"

  StaticText ""
  Option     "Target Spy enabled" , "m8f_ts_enabled"       , "OnOff"
  Option     "Options update"     , "m8f_ts_update_period" , "m8f_ts_update_period_values"

  StaticText ""
  SubMenu    "Visuals"            , "m8f_ts_VisualOptions"

  StaticText ""
  SubMenu    "Target Filters"     , "m8f_ts_Filters"

  StaticText ""
  SubMenu    "Colors"             , "m8f_ts_ColorSetup"

  StaticText ""
  SubMenu    "Behavior"           , "m8f_ts_BehaviorOptions"

  StaticText ""
  SubMenu    "Crosshairs Setup"   , "m8f_ts_Crosshairs"

  StaticText ""
  SubMenu    "Controls"           , "m8f_ts_Controls"

  StaticText ""
  SubMenu    "Cross-mod options"  , "m8f_ts_CrossOptions"

  StaticText ""
}

OptionMenu "m8f_ts_Crosshairs"
{
  Title "Target Spy Crosshairs Setup"

  StaticText ""
  Option "Enabled"             , "m8f_ts_crosshair_on"  , "OnOff"
  Option "Only on target"      , "m8f_ts_cross_only_tg" , "OnOff"
  Option "Hide for Slot 1"     , "m8f_ts_no_cross_on_1" , "OnOff"
  Option "Change color on hit" , "m8f_ts_hit_confirm"   , "OnOff"
  Option "Hit color"           , "m8f_ts_hit_color"     , "TextColors"

  Slider "Top part offset"     , "m8f_ts_top_offset"   , -0.1, 0.1, 0.005, 3
  Slider "Middle part offset"  , "m8f_ts_cross_offset" , -0.1, 0.1, 0.005, 3
  Slider "Bottom part offset"  , "m8f_ts_bot_offset"   , -0.1, 0.1, 0.005, 3
  Slider "X Adjustment"        , "m8f_ts_x_adjustment" , -50, 50, 0.5, 1
  Slider "Scale"               , "m8f_ts_cross_scale"  , 0.5, 3.0, 0.05, 2
  Slider "Opacity"             , "m8f_ts_cr_opacity"   , 0.0, 1.0, 0.05, 2
  Option "Font"                , "m8f_ts_cr_font"      , "m8f_ts_crosshair_font_values"
  SubMenu "Crosshair Pieces Reference", "m8f_ts_cr_pieces_ref"

  StaticText ""
  StaticText ""
  StaticText ""
  StaticText ""

  StaticText ""
  TextField "Top"    , "m8f_ts_cross_top"
  Command "Clear"    , "m8f_ts_cross_top \"\""
  StaticText ""

  TextField "Center" , "m8f_ts_crosshair"
  Command "Clear"    , "m8f_ts_crosshair \"\""
  StaticText ""

  TextField "Bottom" , "m8f_ts_cross_bottom"
  Command "Clear"    , "m8f_ts_cross_bottom \"\""

  StaticText ""
}

ListMenu "m8f_ts_cr_pieces_ref"
{
  StaticTextCentered  160,  0, "Crosshair Pieces Reference"
  StaticPatchCentered 160, 40, "tscp_graph_scaled"
}

OptionMenu "m8f_ts_ColorSetup"
{
  Title "Target Spy Color Setup"

  StaticText ""
  Option "Default crosshair color" , "m8f_ts_def_color_crs" , "TextColors"
  Option "Tag color"               , "m8f_ts_def_color_tag" , "TextColors"
  Option "Weaker enemy tag color"  , "m8f_ts_def_cl_tag_wk" , "TextColors"

  StaticText ""
  Option "Show special color for almost dead" , "m8f_ts_alm_dead_cr", "OnOff"
  Option "Dead/Almost dead color", "m8f_ts_cr_alm_dead", "TextColors"

  StaticText ""
  StaticText "Color for %", 1
  Option "  0%"       , "m8f_ts_cr_0"  , "TextColors"
  Option " 10%"       , "m8f_ts_cr_1"  , "TextColors"
  Option " 20%"       , "m8f_ts_cr_2"  , "TextColors"
  Option " 30%"       , "m8f_ts_cr_3"  , "TextColors"
  Option " 40%"       , "m8f_ts_cr_4"  , "TextColors"
  Option " 50%"       , "m8f_ts_cr_5"  , "TextColors"
  Option " 60%"       , "m8f_ts_cr_6"  , "TextColors"
  Option " 70%"       , "m8f_ts_cr_7"  , "TextColors"
  Option " 80%"       , "m8f_ts_cr_8"  , "TextColors"
  Option " 90%"       , "m8f_ts_cr_9"  , "TextColors"
  Option "100%"       , "m8f_ts_cr_10" , "TextColors"
  Option "Overhealed" , "m8f_ts_cr_11" , "TextColors"

  StaticText ""
  StaticText "Alternative two-color theme", 1
  Option "Enabled"      , "m8f_ts_alt_hp_color" , "OnOff"
  Option "Filled color" , "m8f_ts_green_color"  , "TextColors"
  Option "Empty color"  , "m8f_ts_red_color"    , "TextColors"

  StaticText ""
}

AddOptionMenu "OptionsMenu"
{
  StaticText ""
  Submenu "Target Spy Options", "m8f_ts_Options"
}
